.Xil/Vivado-47256-DESKTOP-2TI4DL6/hw_ila_data_1/zip_work/waveform.vcd
$date
        2025-Apr-30 08:56:56
$end
$version
        Vivado v2019.1 (64-bit)
$end
$timescale
        1ps
$end
$scope module dut $end
$var reg 1 " cnn_core/start_i $end
$var reg 200 # cnn_core/conv_weight_ch1 [199:0] $end
$var reg 200 /# cnn_core/conv_weight_ch2 [199:0] $end
$var reg 200 ;% cnn_core/conv_weight_ch3 [199:0] $end
$var reg 80 G' cnn_core/FC_Weight_1 [79:0] $end
$var reg 80 9( cnn_core/FC_Weight [79:0] $end
$var reg 80 +) cnn_core/FC_Bias [79:0] $end
$var reg 72 {) cnn_core/PE_data_in [71:0] $end
$var reg 72 e* cnn_core/Image_6rows [71:0] $end
$var reg 72 O+ cnn_core/BUF1_out1 [71:0] $end
$var reg 72 9, cnn_core/BUF1_out2 [71:0] $end
$var reg 72 #- cnn_core/BUF1_out3 [71:0] $end
$var reg 40 k- cnn_core/conv_weight_ch1_packed [39:0] $end
$var reg 40 5. cnn_core/conv_weight_ch2_packed [39:0] $end
$var reg 40 ]. cnn_core/conv_weight_ch3_packed [39:0] $end
$var reg 24 '/ cnn_core/bias_in [23:0] $end
$var reg 24 ?/ cnn_core/conv_out1 [23:0] $end
$var reg 24 W/ cnn_core/conv_out2 [23:0] $end
$var reg 24 o/ cnn_core/conv_out3 [23:0] $end
$var reg 24 )0 cnn_core/FIFO_out1 [23:0] $end
$var reg 24 A0 cnn_core/FIFO_out2 [23:0] $end
$var reg 24 Y0 cnn_core/FIFO_out3 [23:0] $end
$var reg 12 q0 cnn_core/MAX_out1 [11:0] $end
$var reg 12 }0 cnn_core/MAX_out2 [11:0] $end
$var reg 12 +1 cnn_core/MAX_out3 [11:0] $end
$var reg 12 71 cnn_core/BUF2_out1 [11:0] $end
$var reg 12 C1 cnn_core/BUF2_out2 [11:0] $end
$var reg 12 O1 cnn_core/BUF2_out3 [11:0] $end
$var reg 12 [1 cnn_core/FC_data [11:0] $end
$var reg 5 g1 cnn_core/PE_addr [4:0] $end
$var reg 5 l1 cnn_core/Weight_addr [4:0] $end
$var reg 3 q1 cnn_core/Conv_Layer [2:0] $end
$var reg 1 t1 cnn_core/Layer_change $end
$var reg 1 u1 cnn_core/Weight_packed_en $end
$var reg 1 v1 cnn_core/FIFO_valid $end
$var reg 1 w1 cnn_core/BUF1_rd_en $end
$var reg 1 x1 cnn_core/BUF1_wr_en_1 $end
$var reg 1 y1 cnn_core/BUF2_rd_en $end
$var reg 1 z1 cnn_core/BUF2_wr_en $end
$var reg 1 {1 cnn_core/PE_clear $end
$var reg 1 |1 cnn_core/PE_en $end
$var reg 1 }1 cnn_core/PE_valid_i $end
$var reg 1 ~1 cnn_core/PE_valid_o $end
$var reg 1 !2 cnn_core/conv_done $end
$var reg 1 "2 cnn_core/FC_done $end
$var reg 1 #2 cnn_core/done $end
$var reg 1 $2 cnn_core/Bias_Sel $end
$var reg 1 %2 cnn_core/acc_wr_en $end
$var reg 1 &2 cnn_core/acc_rd_en $end
$var reg 1 '2 cnn_core/Slide_wr_en $end
$var reg 1 (2 cnn_core/Slide_rd_en $end
$var reg 1 )2 cnn_core/Slide_trigger $end
$var reg 1 *2 cnn_core/Slide_clear $end
$var reg 1 +2 cnn_core/BUF1_wr_en $end
$var reg 1 ,2 _TRIGGER $end
$var reg 1 -2 _WINDOW $end
$var reg 1 .2 _GAP $end
$upscope $end
$enddefinitions $end
#0
$dumpvars
0"
b11111001111011100000110111101001111111000000110100001111000101101111001011110111111111000000011000001000111111111110100100010001000000011110110000000101111011001111011111100111000100011111101011110100 #
b111100010010100101011100010011111110011011100000000111010101000001000111111000000000010100100011011000000010000111111101000110100011010101011010000001100001011100011100001011010011010000101100 /#
b11101000010001110100011101000111010000010101000101011111000111011010010110100000101100001110011111001000010101111110000011000000111010011101001001101001110100000001000111001010001010101001100101010 ;%
b0 G'
b0 9(
b0 +)
b0 {)
b0 e*
b0 O+
b0 9,
b0 #-
b1111110000000110000010001111111111101001 k-
b1110000000000101001000110110000000100001 5.
b1011000011100111110010000101011111100 ].
b111010110000000000001100 '/
b111111101011111111101011 ?/
b0 W/
b1100000000001100 o/
b0 )0
b0 A0
b0 Y0
b0 q0
b0 }0
b0 +1
b0 71
b0 C1
b0 O1
b0 [1
b0 g1
b11 l1
b0 q1
1t1
1u1
0v1
0w1
0x1
0y1
0z1
0{1
0|1
0}1
0~1
0!2
0"2
0#2
0$2
0%2
0&2
0'2
0(2
0)2
0*2
0+2
0,2
1-2
0.2
$end
#1
b1000100000001111011000000010111101100 k-
b1111110100011010001101010101101000000110 5.
b1100000011101001110100100110100111010 ].
b100 l1
#2
b1111011111100111000100011111101011110100 k-
b1011100011100001011010011010000101100 5.
b1000111001010001010101001100101010 ].
#3
0u1
#4
b1 l1
1u1
#5
b110100001111000101101111001011110111 k-
b1110011011100000000111010101000001000111 5.
b10101000101011111000111011010010110100 ].
b10 l1
#6
b1111110000000110000010001111111111101001 k-
b1110000000000101001000110110000000100001 5.
b1011000011100111110010000101011111100 ].
b11 l1
#7
b1000100000001111011000000010111101100 k-
b1111110100011010001101010101101000000110 5.
b1100000011101001110100100110100111010 ].
b100 l1
#8
b1111011111100111000100011111101011110100 k-
b1011100011100001011010011010000101100 5.
b1000111001010001010101001100101010 ].
#9
0u1
#10
b1 l1
1u1
#11
b110100001111000101101111001011110111 k-
b1110011011100000000111010101000001000111 5.
b10101000101011111000111011010010110100 ].
b10 l1
#12
b1111110000000110000010001111111111101001 k-
b1110000000000101001000110110000000100001 5.
b1011000011100111110010000101011111100 ].
b11 l1
#13
b1000100000001111011000000010111101100 k-
b1111110100011010001101010101101000000110 5.
b1100000011101001110100100110100111010 ].
b100 l1
#14
b1111011111100111000100011111101011110100 k-
b1011100011100001011010011010000101100 5.
b1000111001010001010101001100101010 ].
#15
0u1
#16
b1 l1
1u1
#17
b110100001111000101101111001011110111 k-
b1110011011100000000111010101000001000111 5.
b10101000101011111000111011010010110100 ].
b10 l1
#18
b1111110000000110000010001111111111101001 k-
b1110000000000101001000110110000000100001 5.
b1011000011100111110010000101011111100 ].
b11 l1
#19
b1000100000001111011000000010111101100 k-
b1111110100011010001101010101101000000110 5.
b1100000011101001110100100110100111010 ].
b100 l1
#20
b1111011111100111000100011111101011110100 k-
b1011100011100001011010011010000101100 5.
b1000111001010001010101001100101010 ].
#21
0u1
#22
b1 l1
1u1
#23
b110100001111000101101111001011110111 k-
b1110011011100000000111010101000001000111 5.
b10101000101011111000111011010010110100 ].
b10 l1
#24
b1111110000000110000010001111111111101001 k-
b1110000000000101001000110110000000100001 5.
b1011000011100111110010000101011111100 ].
b11 l1
#25
b1000100000001111011000000010111101100 k-
b1111110100011010001101010101101000000110 5.
b1100000011101001110100100110100111010 ].
b100 l1
#26
b1111011111100111000100011111101011110100 k-
b1011100011100001011010011010000101100 5.
b1000111001010001010101001100101010 ].
#27
0u1
#28
b1 l1
1u1
#29
b110100001111000101101111001011110111 k-
b1110011011100000000111010101000001000111 5.
b10101000101011111000111011010010110100 ].
b10 l1
#30
b1111110000000110000010001111111111101001 k-
b1110000000000101001000110110000000100001 5.
b1011000011100111110010000101011111100 ].
b11 l1
#31
b1000100000001111011000000010111101100 k-
b1111110100011010001101010101101000000110 5.
b1100000011101001110100100110100111010 ].
b100 l1
#32
b1111011111100111000100011111101011110100 k-
b1011100011100001011010011010000101100 5.
b1000111001010001010101001100101010 ].
#33
0u1
#34
b1 l1
1u1
#35
b110100001111000101101111001011110111 k-
b1110011011100000000111010101000001000111 5.
b10101000101011111000111011010010110100 ].
b10 l1
#36
b1111110000000110000010001111111111101001 k-
b1110000000000101001000110110000000100001 5.
b1011000011100111110010000101011111100 ].
b11 l1
#37
b1000100000001111011000000010111101100 k-
b1111110100011010001101010101101000000110 5.
b1100000011101001110100100110100111010 ].
b100 l1
#38
b1111011111100111000100011111101011110100 k-
b1011100011100001011010011010000101100 5.
b1000111001010001010101001100101010 ].
#39
0u1
#40
b1 l1
1u1
#41
b110100001111000101101111001011110111 k-
b1110011011100000000111010101000001000111 5.
b10101000101011111000111011010010110100 ].
b10 l1
#42
b1111110000000110000010001111111111101001 k-
b1110000000000101001000110110000000100001 5.
b1011000011100111110010000101011111100 ].
b11 l1
#43
b1000100000001111011000000010111101100 k-
b1111110100011010001101010101101000000110 5.
b1100000011101001110100100110100111010 ].
b100 l1
#44
b1111011111100111000100011111101011110100 k-
b1011100011100001011010011010000101100 5.
b1000111001010001010101001100101010 ].
#45
0u1
#46
b1 l1
1u1
#47
b110100001111000101101111001011110111 k-
b1110011011100000000111010101000001000111 5.
b10101000101011111000111011010010110100 ].
b10 l1
#48
b1111110000000110000010001111111111101001 k-
b1110000000000101001000110110000000100001 5.
b1011000011100111110010000101011111100 ].
b11 l1
#49
b1000100000001111011000000010111101100 k-
b1111110100011010001101010101101000000110 5.
b1100000011101001110100100110100111010 ].
b100 l1
#50
b1111011111100111000100011111101011110100 k-
b1011100011100001011010011010000101100 5.
b1000111001010001010101001100101010 ].
#51
0u1
#52
b1 l1
1u1
#53
b110100001111000101101111001011110111 k-
b1110011011100000000111010101000001000111 5.
b10101000101011111000111011010010110100 ].
b10 l1
#54
b1111110000000110000010001111111111101001 k-
b1110000000000101001000110110000000100001 5.
b1011000011100111110010000101011111100 ].
b11 l1
#55
b1000100000001111011000000010111101100 k-
b1111110100011010001101010101101000000110 5.
b1100000011101001110100100110100111010 ].
b100 l1
#56
b1111011111100111000100011111101011110100 k-
b1011100011100001011010011010000101100 5.
b1000111001010001010101001100101010 ].
#57
0u1
#58
b1 l1
1u1
#59
b110100001111000101101111001011110111 k-
b1110011011100000000111010101000001000111 5.
b10101000101011111000111011010010110100 ].
b10 l1
#60
b1111110000000110000010001111111111101001 k-
b1110000000000101001000110110000000100001 5.
b1011000011100111110010000101011111100 ].
b11 l1
#61
b1000100000001111011000000010111101100 k-
b1111110100011010001101010101101000000110 5.
b1100000011101001110100100110100111010 ].
b100 l1
#62
b1111011111100111000100011111101011110100 k-
b1011100011100001011010011010000101100 5.
b1000111001010001010101001100101010 ].
#63
0u1
#64
b1 l1
1u1
#65
b110100001111000101101111001011110111 k-
b1110011011100000000111010101000001000111 5.
b10101000101011111000111011010010110100 ].
b10 l1
#66
b1111110000000110000010001111111111101001 k-
b1110000000000101001000110110000000100001 5.
b1011000011100111110010000101011111100 ].
b11 l1
#67
b1000100000001111011000000010111101100 k-
b1111110100011010001101010101101000000110 5.
b1100000011101001110100100110100111010 ].
b100 l1
#68
b1111011111100111000100011111101011110100 k-
b1011100011100001011010011010000101100 5.
b1000111001010001010101001100101010 ].
#69
0u1
#70
b1 l1
1u1
#71
b110100001111000101101111001011110111 k-
b1110011011100000000111010101000001000111 5.
b10101000101011111000111011010010110100 ].
b10 l1
#72
b1111110000000110000010001111111111101001 k-
b1110000000000101001000110110000000100001 5.
b1011000011100111110010000101011111100 ].
b11 l1
#73
b1000100000001111011000000010111101100 k-
b1111110100011010001101010101101000000110 5.
b1100000011101001110100100110100111010 ].
b100 l1
#74
1"
b1111011111100111000100011111101011110100 k-
b1011100011100001011010011010000101100 5.
b1000111001010001010101001100101010 ].
#75
0"
0t1
0u1
#76
b1 l1
1u1
#77
b110100001111000101101111001011110111 k-
b1110011011100000000111010101000001000111 5.
b10101000101011111000111011010010110100 ].
b10 l1
1'2
#78
b1111110000000110000010001111111111101001 k-
b1110000000000101001000110110000000100001 5.
b1011000011100111110010000101011111100 ].
b11 l1
#79
b1000100000001111011000000010111101100 k-
b1111110100011010001101010101101000000110 5.
b1100000011101001110100100110100111010 ].
b100 l1
#80
b1111011111100111000100011111101011110100 k-
b1011100011100001011010011010000101100 5.
b1000111001010001010101001100101010 ].
#81
0u1
#105
1)2
#106
0)2
#134
1)2
#135
0)2
#163
1)2
#164
1v1
1x1
1|1
1(2
0)2
1+2
#165
b1 g1
1}1
#166
b10 g1
#167
b11 g1
#168
b100 g1
#169
b101 g1
#170
b110 g1
#171
b111 g1
#172
b1000 g1
#173
b1001 g1
#174
b1010 g1
#175
b1011 g1
#176
b1100 g1
#177
b1101 g1
1~1
#178
b1011000000100101 {)
b1011000000100101 e*
b111111101011 )0
b1100 Y0
b1110 g1
#179
b10010110000011111011 {)
b10010110000011111011 e*
b111111101011111111101011 )0
b1100000000001100 Y0
b1111 g1
#180
b11111101000011111011 {)
b11111101000011111011 e*
b10000 g1
#181
b11001010000011111101 {)
b11001010000011111101 e*
b1100 +1
b10001 g1
#182
b11111000001101011 {)
b11111000001101011 e*
b0 +1
b10010 g1
#183
b0 {)
b0 e*
b1100 +1
b10011 g1
#184
b0 +1
b10100 g1
#185
b111111101010111111101000 ?/
b1000000000110 W/
b1101000000010100 o/
b1100 +1
b10101 g1
#186
b111111100011111111010010 ?/
b11100000000111010 W/
b101000000001100110 o/
b111111101011111111101010 )0
b110 A0
b1100000000010100 Y0
b0 +1
b10110 g1
#187
b111111011100111111001010 ?/
b1001011000010100001 W/
b1101001000011111001 o/
b111111101010111111100011 )0
b110000000111010 A0
b10100000001100110 Y0
b1100 +1
b10111 g1
#188
b111111100100111111001111 ?/
b1110001000100001100 W/
b10101010000101101111 o/
b111111100011111111011100 )0
b111010000010100001 A0
b1100110000011111001 Y0
b0 +1
b11000 g1
#189
b111111100110111111000101 ?/
b1101100000100011011 W/
b10111000000101111010 o/
b111111011100111111100100 )0
b10100001000100001100 A0
b11111001000101101111 Y0
b111010 }0
b1100110 +1
b11001 g1
#190
b111111011001111111010011 ?/
b1010010000011000000 W/
b10000110000100001110 o/
b111111100100111111100110 )0
b100001100000100011011 A0
b101101111000101111010 Y0
b0 }0
b0 +1
b11010 g1
#191
b111111010000111111011111 ?/
b110010000001011101 W/
b1000011000010011000 o/
b111111100110111111011001 )0
b100011011000011000000 A0
b101111010000100001110 Y0
b100001100 }0
b101101111 +1
b11011 g1
#192
b111111100000111111100101 ?/
b10101000000100011 W/
b10100000000111100 o/
b111111011001111111011111 )0
b11000000000001011101 A0
b100001110000010011000 Y0
b0 }0
b0 +1
b0 g1
1)2
#193
b111111101001111111101001 ?/
b10000000001001 W/
b1100000000001111 o/
b111111011111111111100101 )0
b1011101000000100011 A0
b10011000000000111100 Y0
b100011011 }0
b101111010 +1
0)2
#194
b111111101011111111101011 ?/
b0 W/
b1100000000001100 o/
b111111100101111111101001 )0
b100011000000001001 A0
b111100000000001111 Y0
b0 }0
b0 +1
b1 g1
#195
b111111101001111111101011 )0
b1001000000000000 A0
b1111000000001100 Y0
b1011101 }0
b10011000 +1
b10 g1
#196
b111111101011111111101011 )0
b0 A0
b1100000000001100 Y0
b0 }0
b0 +1
b11 g1
#197
b1001 }0
b1111 +1
b100 g1
#198
b0 }0
b0 +1
b101 g1
#199
b1100 +1
b110 g1
#200
b0 +1
b111 g1
#201
b1100 +1
b1000 g1
0~1
#202
b0 +1
b1001 g1
#203
b1100 +1
b1010 g1
#204
b0 +1
b1011 g1
#205
b1101110 {)
b1101110 e*
b1100 g1
#206
b10101000010111110 {)
b10101000010111110 e*
b1101 g1
1~1
#207
b1011000000100101000011000101000011111011 {)
b1011000000100101000011000101000011111011 e*
b1110 g1
#208
b10010110000011111011000011111011000011111011 {)
b10010110000011111011000011111011000011111011 e*
b1111 g1
#209
b11111101000011111011000011111011000011111011 {)
b11111101000011111011000011111011000011111011 e*
b10000 g1
#210
b11001010000011111101000011111101000011111101 {)
b11001010000011111101000011111101000011111101 e*
b1100 +1
b10001 g1
#211
b11111000001101011000001101011000010101001 {)
b11111000001101011000001101011000010101001 e*
b0 +1
b10010 g1
#212
b1101101 {)
b1101101 e*
b111111101011111111100101 ?/
b10010 W/
b1100000000011110 o/
b1100 +1
b10011 g1
#213
b111110 {)
b111110 e*
b111111101010111111011101 ?/
b11000000110111 W/
b1111000001010011 o/
b10010 A0
b1100000000011110 Y0
b0 +1
b10100 g1
#214
b0 {)
b0 e*
b111111011101111111001111 ?/
b101000000001111000 W/
b111011000010111111 o/
b111111101011111111101010 )0
b10010000000110111 A0
b11110000001010011 Y0
b1100 +1
b10101 g1
#215
b111110111011111110101101 ?/
b10000001000100110110 W/
b10111100000100011000 o/
b111111101010111111011101 )0
b110111000001111000 A0
b1010011000010111111 Y0
b0 +1
b10110 g1
#216
b111110111011111110001111 ?/
b101000011001000101011 W/
b101001110000100110100 o/
b111111011101111110111011 )0
b1111000000100110110 A0
b10111111000100011000 Y0
b110111 }0
b1010011 +1
b10111 g1
#217
b111110100101111110010100 ?/
b111000101001010010101 W/
b110111100000101000110 o/
b111110111011111110111011 )0
b100110110001000101011 A0
b100011000000101001110 Y0
b0 }0
b0 +1
b11000 g1
#218
b111111000101111111011001 ?/
b110111011001000110100 W/
b110111011000110011100 o/
b111110111011111110100101 )0
b1000101011001010010101 A0
b101001110000110111100 Y0
b100110110 }0
b100011000 +1
b11001 g1
#219
b111111100001000000000000 ?/
b11111110000100100110 W/
b101011110000110110001 o/
b111110100101111111011001 )0
b1010010101001000110100 A0
b110111100000110111011 Y0
b0 }0
b0 +1
b11010 g1
#220
b111111011011111111111001 ?/
b1011010000001100010 W/
b11011010000101100100 o/
b111111011001000000000000 )0
b1000110100000100100110 A0
b110111011000110110001 Y0
b1010010101 }0
b110111100 +1
b11011 g1
#221
b111111100110111111110011 ?/
b10001000000011010 W/
b1011110000011010000 o/
b111111111001 )0
b100100110000001100010 A0
b110110001000101100100 Y0
b0 }0
b0 +1
b0 g1
1)2
#222
b111111101101111111100101 ?/
b100000000010100 W/
b11001000001001110 o/
b111111111001111111110011 )0
b1100010000000011010 A0
b101100100000011010000 Y0
b1000110100 }0
b110111011 +1
0)2
#223
b111111101011111111100001 ?/
b10000 W/
b1100000000011010 o/
b111111110011111111101101 )0
b11010000000010100 A0
b11010000000001001110 Y0
b0 }0
b0 +1
b1 g1
#224
b111111101011111111101000 ?/
b101 W/
b1100000000001100 o/
b111111101101111111101011 )0
b10100000000010000 A0
b1001110000000011010 Y0
b1100010 }0
b101100100 +1
b10 g1
#225
b111111101011111111101011 ?/
b0 W/
b111111101011111111101011 )0
b10000000000000101 A0
b11010000000001100 Y0
b0 }0
b0 +1
b11 g1
#226
b101000000000000 A0
b1100000000001100 Y0
b10100 }0
b1001110 +1
b100 g1
#227
b0 A0
b0 }0
b0 +1
b101 g1
#228
b101 }0
b1100 +1
b110 g1
#229
b0 }0
b0 +1
b111 g1
#230
b1100 +1
b1000 g1
0~1
#231
b0 +1
b1001 g1
#232
b1100 +1
b1010 g1
#233
b10110110 {)
b10110110 e*
b0 +1
b1011 g1
#234
b1101110000011111101000011111111 {)
b1101110000011111101000011111111 e*
b1100 g1
#235
b10101000010111110000011111011000011111101 {)
b10101000010111110000011111011000011111101 e*
b1101 g1
1~1
#236
b1011000000100101000011000101000011111011000011111011000011111101 {)
b1011000000100101000011000101000011111011000011111011000011111101 e*
b1110 g1
#237
b10010110000011111011000011111011000011111011000011111011000011111101 {)
b10010110000011111011000011111011000011111011000011111011000011111101 e*
b1111 g1
#238
b11111101000011111011000011111011000011111011000011111011000011111101 {)
b11111101000011111011000011111011000011111011000011111011000011111101 e*
b10000 g1
#239
b11001010000011111101000011111101000011111101000011111101000011101010 {)
b11001010000011111101000011111101000011111101000011111101000011101010 e*
b1100 +1
b10001 g1
#240
b11111000001101011000001101011000010101001000011111011000011011110 {)
b11111000001101011000001101011000010101001000011111011000011011110 e*
b111111101011111111100010 ?/
b11111 W/
b1100000000101001 o/
b0 +1
b10010 g1
#241
b1101101000011111011000011111101 {)
b1101101000011111011000011111101 e*
b111111010110111110111101 ?/
b101110000001100100 W/
b1001110000010101000 o/
b11111 A0
b1100000000101001 Y0
b1100 +1
b10011 g1
#242
b111110000011011100000011111101 {)
b111110000011011100000011111101 e*
b111111001010111111000100 ?/
b10001100000100100101 W/
b11010011000100111001 o/
b111111101011111111010110 )0
b11111000001100100 A0
b101001000010101000 Y0
b0 +1
b10100 g1
#243
b110011000011111101 {)
b110011000011111101 e*
b111110111110111110011001 ?/
b100011000000111110001 W/
b101000111000101101110 o/
b111111010110111111001010 )0
b1100100000100100101 A0
b10101000000100111001 Y0
b11111 }0
b101001 +1
b10101 g1
#244
b0 {)
b0 e*
b111110001111111110000001 ?/
b1000100111001011011110 W/
b101011101000101001010 o/
b111111001010111110111110 )0
b100100101000111110001 A0
b100111001000101101110 Y0
b0 }0
b0 +1
b10110 g1
#245
b111101111001111110001101 ?/
b1100011000001101010010 W/
b100100011000100111010 o/
b111110111110111110001111 )0
b111110001001011011110 A0
b101101110000101011101 Y0
b100100101 }0
b100111001 +1
b10111 g1
#246
b111110010110111110100110 ?/
b1101100101001101010101 W/
b100100010000101001100 o/
b111110001111111110001101 )0
b1011011110001101010010 A0
b101011101000100111010 Y0
b0 }0
b0 +1
b11000 g1
#247
b111111000010111110110001 ?/
b1010110111001011000101 W/
b110010010000110110011 o/
b111110001101111110100110 )0
b1101010010001101100101 A0
b100111010000101001100 Y0
b1011011110 }0
b101101110 +1
b11001 g1
#248
b111111100111111111001100 ?/
b110010111000111111000 W/
b1000000101001000110000 o/
b111110100110111111000010 )0
b1101100101001011000101 A0
b101001100000110110011 Y0
b0 }0
b0 +1
b11010 g1
#249
b111111100010111111001100 ?/
b11011000000101100001 W/
b1000011110001001110101 o/
b111111000010111111100111 )0
b1011000101000111111000 A0
b110110011001000110000 Y0
b1101100101 }0
b101001100 +1
b11011 g1
#250
b111111100110111111010010 ?/
b10000111000100101110 W/
b110100100001000111100 o/
b111111100111111111100010 )0
b111111000000101100001 A0
b1000110000001001110101 Y0
b0 }0
b0 +1
b0 g1
1)2
#251
b111111100000111111011011 ?/
b1100000000011010000 W/
b11011010000110000111 o/
b111111100010111111100110 )0
b101100001000100101110 A0
b1001110101001000111100 Y0
b1011000101 }0
b1000110000 +1
0)2
#252
b111111010111111111100111 ?/
b111100000001110000 W/
b1011101000011010110 o/
b111111100110111111100000 )0
b100101110000011010000 A0
b1000111100000110000111 Y0
b0 }0
b0 +1
b1 g1
#253
b111111100010111111010111 ?/
b11000000000101101 W/
b11110000001100110 o/
b111111100000111111100111 )0
b11010000000001110000 A0
b110000111000011010110 Y0
b101100001 }0
b1001110101 +1
b10 g1
#254
b111111101001111111100101 ?/
b100000000010110 W/
b1100000000010010 o/
b111111100111111111100010 )0
b1110000000000101101 A0
b11010110000001100110 Y0
b0 }0
b0 +1
b11 g1
#255
b111111101011111111101011 ?/
b0 W/
b1100000000001100 o/
b111111100010111111101001 )0
b101101000000010110 A0
b1100110000000010010 Y0
b11010000 }0
b110000111 +1
b100 g1
#256
b111111101001111111101011 )0
b10110000000000000 A0
b10010000000001100 Y0
b0 }0
b0 +1
b101 g1
#257
b111111101011111111101011 )0
b0 A0
b1100000000001100 Y0
b101101 }0
b1100110 +1
b110 g1
#258
b0 }0
b0 +1
b111 g1
#259
b1100 +1
b1000 g1
0~1
#260
b100000 {)
b100000 e*
b0 +1
b1001 g1
#261
b111111000011100111 {)
b111111000011100111 e*
b1100 +1
b1010 g1
#262
b10110110000011011101000011111011 {)
b10110110000011011101000011111011 e*
b0 +1
b1011 g1
#263
b1101110000011111101000011111111000011111101000011111101 {)
b1101110000011111101000011111111000011111101000011111101 e*
b1100 g1
#264
b10101000010111110000011111011000011111101000011111011000011111011 {)
b10101000010111110000011111011000011111101000011111011000011111011 e*
b1101 g1
1~1
#265
b11000101000011111011000011111011000011111101000011111011000011011100 {)
b11000101000011111011000011111011000011111101000011111011000011011100 e*
b1110 g1
#266
b11111011000011111011000011111011000011111101000011111011000010001001 {)
b11111011000011111011000011111011000011111101000011111011000010001001 e*
b1111 g1
#267
b11111011000011111011000011111011000011111101000010010011000000001010 {)
b11111011000011111011000011111011000011111101000010010011000000001010 e*
b111111101011111111101001 ?/
b101 W/
b1100000000010001 o/
b10000 g1
#268
b11111101000011111101000011111101000011101010000001001101000000000000 {)
b11111101000011111101000011111101000011101010000001001101000000000000 e*
b111111101000111111011010 ?/
b1010000000101111 W/
b10110000001001010 o/
b101 A0
b1100000000010001 Y0
b1100 +1
b10001 g1
#269
b1101011000010101001000011111011000011011110000000111110000000000000 {)
b1101011000010101001000011111011000011011110000000111110000000000000 e*
b111111010000111110111011 ?/
b110111000010010010 W/
b1101101000011001010 o/
b111111101011111111101000 )0
b101000000101111 A0
b10001000001001010 Y0
b0 +1
b10010 g1
#270
b1101101000011111011000011111101000010000000000000011111 {)
b1101101000011111011000011111101000010000000000000011111 e*
b111110110011111110101110 ?/
b11101000000110111000 W/
b11011010000100000100 o/
b111111101000111111010000 )0
b101111000010010010 A0
b1001010000011001010 Y0
b101 }0
b10001 +1
b10011 g1
#271
b111110000011011100000011111101000011111011000011100110 {)
b111110000011011100000011111101000011111011000011100110 e*
b111110100000111101111101 ?/
b111101110001011001001 W/
b100101010000100001011 o/
b111111010000111110110011 )0
b10010010000110111000 A0
b11001010000100000100 Y0
b0 }0
b0 +1
b10100 g1
#272
b110011000011111101000011111011000011111011 {)
b110011000011111101000011111011000011111011 e*
b111110010001111110010001 ?/
b1011000001001101010111 W/
b100101011000100001001 o/
b111110110011111110100000 )0
b110111000001011001001 A0
b100000100000100101010 Y0
b10010010 }0
b11001010 +1
b10101 g1
#273
b1101001000011110011 {)
b1101001000011110011 e*
b111110010101111110100100 ?/
b1100111101001100101100 W/
b101000111000100111100 o/
b111110100000111110010001 )0
b1011001001001101010111 A0
b100101010000100101011 Y0
b0 }0
b0 +1
b10110 g1
#274
b1110001 {)
b1110001 e*
b111110101100111110111010 ?/
b1100101110001011011111 W/
b101010110000100100111 o/
b111110010001111110100100 )0
b1101010111001100111101 A0
b100101011000101000111 Y0
b1011001001 }0
b100101010 +1
b10111 g1
#275
b101 {)
b101 e*
b111110110001111110111010 ?/
b1011111100001010000111 W/
b100111101000010111010 o/
b111110100100111110111010 )0
b1100111101001100101110 A0
b101000111000101010110 Y0
b0 }0
b0 +1
b11000 g1
#276
b0 {)
b0 e*
b111110101100111111000011 ?/
b1010000110001000010011 W/
b101000101000001100000 o/
b111110111010111110111010 )0
b1100101110001011111100 A0
b101010110000100111101 Y0
b1101010111 }0
b101000111 +1
b11001 g1
#277
b111111000010111111010101 ?/
b111101111000110110000 W/
b101101000000001000001 o/
b111110111010111111000011 )0
b1011111100001010000110 A0
b100111101000101000101 Y0
b0 }0
b0 +1
b11010 g1
#278
b111111001001111111000100 ?/
b110011001000110101100 W/
b111000100000010011110 o/
b111111000011111111010101 )0
b1010000110000111101111 A0
b101000101000101101000 Y0
b1100101110 }0
b101010110 +1
b11011 g1
#279
b111111011001111111001010 ?/
b101110100000110111010 W/
b1000011110000101011011 o/
b111111010101111111001001 )0
b111101111000110101100 A0
b101101000000111000100 Y0
b0 }0
b0 +1
b0 g1
1)2
#280
b111111111101111111111111 ?/
b100101000000110000001 W/
b111100110000111101000 o/
b111111001001111111011001 )0
b110101100000110111010 A0
b111000100001000011110 Y0
b1010000110 }0
b101101000 +1
0)2
#281
b111111100110111111110001 ?/
b10001100000011010010 W/
b101100000000111100110 o/
b111111011001111111111111 )0
b110111010000110000001 A0
b1000011110000111101000 Y0
b0 }0
b0 +1
b1 g1
#282
b111111100011111111101111 ?/
b111010000001100111 W/
b10111001000101011101 o/
b111111111111111111110001 )0
b110000001000011010010 A0
b111101000000111100110 Y0
b110111010 }0
b1000011110 +1
b10 g1
#283
b111111100111111111100001 ?/
b11000000000101000 W/
b1000001000010100101 o/
b111111110001111111101111 )0
b11010010000001100111 A0
b111100110000101011101 Y0
b0 }0
b0 +1
b11 g1
#284
b111111100111111111011110 ?/
b1001000000100001 W/
b1100000000110010 o/
b111111101111111111100111 )0
b1100111000000101000 A0
b101011101000010100101 Y0
b110000001 }0
b111101000 +1
b100 g1
#285
b111111101011111111100110 ?/
b1010 W/
b1100000000001101 o/
b111111100111111111100111 )0
b101000000000100001 A0
b10100101000000110010 Y0
b0 }0
b0 +1
b101 g1
#286
b111111101011111111101010 ?/
b0 W/
b1100000000001100 o/
b111111100111111111101011 )0
b100001000000001010 A0
b110010000000001101 Y0
b1100111 }0
b101011101 +1
b110 g1
#287
b111111101011111111101011 ?/
b111111101011111111101011 )0
b1010000000000000 A0
b1101000000001100 Y0
b0 }0
b0 +1
b111 g1
#288
b0 A0
b1100000000001100 Y0
b100001 }0
b110010 +1
b1000 g1
0~1
#289
b100000000000100101000000100101 {)
b100000000000100101000000100101 e*
b0 }0
b0 +1
b1001 g1
#290
b111111000011100111000011111011000011111011 {)
b111111000011100111000011111011000011111011 e*
b1100 +1
b1010 g1
#291
b10110110000011011101000011111011000011111011000011111011 {)
b10110110000011011101000011111011000011111011000011111011 e*
b0 +1
b1011 g1
#292
b11111101000011111111000011111101000011111101000011111101000011001001 {)
b11111101000011111111000011111101000011111101000011111101000011001001 e*
b1100 g1
#293
b11111011000011111101000011111011000011111011000010111100000000011110 {)
b11111011000011111101000011111011000011111011000010111100000000011110 e*
b1101 g1
1~1
#294
b11111011000011111101000011111011000011011100000000010100000000000000 {)
b11111011000011111101000011111011000011011100000000010100000000000000 e*
b1110 g1
#295
b11111011000011111101000011111011000010001001000000000000000000000000 {)
b11111011000011111101000011111011000010001001000000000000000000000000 e*
b1111 g1
#296
b11111011000011111101000010010011000000001010000000000000000000000000 {)
b11111011000011111101000010010011000000001010000000000000000000000000 e*
b111111100110111111100011 ?/
b111000000001011 W/
b11001000000011001 o/
b10000 g1
#297
b11111101000011101010000001001101000000000000000000000000000000000000 {)
b11111101000011101010000001001101000000000000000000000000000000000000 e*
b111111000111111110110100 ?/
b1001011000010000000 W/
b1111110000001110000 o/
b111111101011111111100110 )0
b1011 A0
b1100000000011001 Y0
b1100 +1
b10001 g1
