.Xil/Vivado-35336-DESKTOP-2TI4DL6/hw_ila_data_1/zip_work/waveform.vcd
$date
        2025-Apr-29 09:23:24
$end
$version
        Vivado v2019.1 (64-bit)
$end
$timescale
        1ps
$end
$scope module dut $end
$var reg 1 " cnn_core/start_i $end
$var reg 200 # cnn_core/conv_weight_ch1 [199:0] $end
$var reg 200 /# cnn_core/conv_weight_ch2 [199:0] $end
$var reg 200 ;% cnn_core/conv_weight_ch3 [199:0] $end
$var reg 80 G' cnn_core/FC_Weight_1 [79:0] $end
$var reg 80 9( cnn_core/FC_Weight [79:0] $end
$var reg 80 +) cnn_core/FC_Bias [79:0] $end
$var reg 72 {) cnn_core/PE_data_in [71:0] $end
$var reg 72 e* cnn_core/Image_6rows [71:0] $end
$var reg 72 O+ cnn_core/BUF1_out1 [71:0] $end
$var reg 72 9, cnn_core/BUF1_out2 [71:0] $end
$var reg 72 #- cnn_core/BUF1_out3 [71:0] $end
$var reg 40 k- cnn_core/conv_weight_ch1_packed [39:0] $end
$var reg 40 5. cnn_core/conv_weight_ch2_packed [39:0] $end
$var reg 1 ]. cnn_core/prconv_weight_ch3_packedobe14 $end
$var reg 1 ^. cnn_core/<const0>_1 $end
$var reg 1 _. cnn_core/<const0>_2 $end
$var reg 1 `. cnn_core/<const0>_3 $end
$var reg 1 a. cnn_core/<const0>_4 $end
$var reg 1 b. cnn_core/<const0>_5 $end
$var reg 1 c. cnn_core/<const0>_6 $end
$var reg 1 d. cnn_core/<const0>_7 $end
$var reg 1 e. cnn_core/<const0>_8 $end
$var reg 1 f. cnn_core/<const0>_9 $end
$var reg 1 g. cnn_core/<const0>_10 $end
$var reg 1 h. cnn_core/<const0>_11 $end
$var reg 1 i. cnn_core/<const0>_12 $end
$var reg 1 j. cnn_core/<const0>_13 $end
$var reg 1 k. cnn_core/<const0>_14 $end
$var reg 1 l. cnn_core/<const0>_15 $end
$var reg 1 m. cnn_core/<const0>_16 $end
$var reg 1 n. cnn_core/<const0>_17 $end
$var reg 1 o. cnn_core/<const0>_18 $end
$var reg 1 p. cnn_core/<const0>_19 $end
$var reg 1 q. cnn_core/<const0>_20 $end
$var reg 1 r. cnn_core/<const0>_21 $end
$var reg 1 s. cnn_core/<const0>_22 $end
$var reg 1 t. cnn_core/<const0>_23 $end
$var reg 1 u. cnn_core/<const0>_24 $end
$var reg 1 v. cnn_core/<const0>_25 $end
$var reg 1 w. cnn_core/<const0>_26 $end
$var reg 1 x. cnn_core/<const0>_27 $end
$var reg 1 y. cnn_core/<const0>_28 $end
$var reg 1 z. cnn_core/<const0>_29 $end
$var reg 1 {. cnn_core/<const0>_30 $end
$var reg 1 |. cnn_core/<const0>_31 $end
$var reg 1 }. cnn_core/<const0>_32 $end
$var reg 1 ~. cnn_core/<const0>_33 $end
$var reg 1 !/ cnn_core/<const0>_34 $end
$var reg 1 "/ cnn_core/<const0>_35 $end
$var reg 1 #/ cnn_core/<const0>_36 $end
$var reg 1 $/ cnn_core/<const0>_37 $end
$var reg 1 %/ cnn_core/<const0>_38 $end
$var reg 1 &/ cnn_core/<const0> $end
$var reg 24 '/ cnn_core/bias_in [23:0] $end
$var reg 24 ?/ cnn_core/conv_out1 [23:0] $end
$var reg 24 W/ cnn_core/conv_out2 [23:0] $end
$var reg 24 o/ cnn_core/conv_out3 [23:0] $end
$var reg 24 )0 cnn_core/FIFO_out1 [23:0] $end
$var reg 24 A0 cnn_core/FIFO_out2 [23:0] $end
$var reg 24 Y0 cnn_core/FIFO_out3 [23:0] $end
$var reg 12 q0 cnn_core/MAX_out1 [11:0] $end
$var reg 12 }0 cnn_core/MAX_out2 [11:0] $end
$var reg 12 +1 cnn_core/MAX_out3 [11:0] $end
$var reg 12 71 cnn_core/BUF2_out1 [11:0] $end
$var reg 12 C1 cnn_core/BUF2_out2 [11:0] $end
$var reg 12 O1 cnn_core/BUF2_out3 [11:0] $end
$var reg 12 [1 cnn_core/FC_data [11:0] $end
$var reg 5 g1 cnn_core/PE_addr [4:0] $end
$var reg 5 l1 cnn_core/Weight_addr [4:0] $end
$var reg 3 q1 cnn_core/Conv_Layer [2:0] $end
$var reg 1 t1 cnn_core/Layer_change $end
$var reg 1 u1 cnn_core/Weight_packed_en $end
$var reg 1 v1 cnn_core/FIFO_valid $end
$var reg 1 w1 cnn_core/BUF1_rd_en $end
$var reg 1 x1 cnn_core/BUF1_wr_en_1 $end
$var reg 1 y1 cnn_core/BUF2_rd_en $end
$var reg 1 z1 cnn_core/BUF2_wr_en $end
$var reg 1 {1 cnn_core/PE_clear $end
$var reg 1 |1 cnn_core/PE_en $end
$var reg 1 }1 cnn_core/PE_valid_i $end
$var reg 1 ~1 cnn_core/PE_valid_o $end
$var reg 1 !2 cnn_core/conv_done $end
$var reg 1 "2 cnn_core/FC_done $end
$var reg 1 #2 cnn_core/done $end
$var reg 1 $2 cnn_core/Bias_Sel $end
$var reg 1 %2 cnn_core/acc_wr_en $end
$var reg 1 &2 cnn_core/acc_rd_en $end
$var reg 1 '2 cnn_core/Slide_wr_en $end
$var reg 1 (2 cnn_core/Slide_rd_en $end
$var reg 1 )2 cnn_core/Slide_trigger $end
$var reg 1 *2 cnn_core/Slide_clear $end
$var reg 1 +2 cnn_core/BUF1_wr_en $end
$var reg 1 ,2 _TRIGGER $end
$var reg 1 -2 _WINDOW $end
$var reg 1 .2 _GAP $end
$upscope $end
$enddefinitions $end
#0
$dumpvars
0"
b1101000011110001011011110010111101111111110000000110000010001111111111101001000100010000000111101100000001011110110011110111111001110001000111111010111101000000000000000000000000000000000000000000 #
b11100110111000000001110101010000010001111110000000000101001000110110000000100001111111010001101000110101010110100000011000010111000111000010110100110100001011000000000000000000000000000000000000000000 /#
b101010001010111110001110110100101101000001011000011100111110010000101011111100000110000001110100111010010011010011101000000010001110010100010101010011001010100000000000000000000000000000000000000000 ;%
b0 G'
b0 9(
b0 +)
b0 {)
b0 e*
b0 O+
b0 9,
b0 #-
b1111011111100111000100011111101011110100 k-
b1011100011100001011010011010000101100 5.
0].
0^.
0_.
0`.
0a.
0b.
0c.
0d.
0e.
0f.
0g.
0h.
0i.
0j.
0k.
0l.
0m.
0n.
0o.
0p.
0q.
0r.
0s.
0t.
0u.
0v.
0w.
0x.
0y.
0z.
0{.
0|.
0}.
0~.
0!/
0"/
0#/
0$/
0%/
0&/
b0 '/
b0 ?/
b0 W/
b0 o/
b0 )0
b0 A0
b0 Y0
b0 q0
b0 }0
b0 +1
b0 71
b0 C1
b0 O1
b0 [1
b0 g1
b100 l1
b0 q1
0t1
0u1
0v1
1w1
0x1
0y1
0z1
0{1
1|1
1}1
1~1
0!2
0"2
0#2
1$2
1%2
0&2
0'2
0(2
1)2
1*2
0+2
0,2
1-2
0.2
$end
#4
0~1
#5
b1 q1
1t1
1{1
0|1
0%2
#6
b0 #
b0 /#
b0 ;%
b11101 l1
b0 q1
0t1
0w1
0{1
0}1
0*2
#7
b0 k-
b0 5.
b1 l1
1u1
#8
b110100001111000101101111001011110111 k-
b1110011011100000000111010101000001000111 5.
b10 l1
#9
b1101000011110001011011110010111101110000000000000000000000000000000000000000000000000000000000000000000000000000000000000000000000000000000000000000000000000000000000000000000000000000000000000000 #
b11100110111000000001110101010000010001110000000000000000000000000000000000000000000000000000000000000000000000000000000000000000000000000000000000000000000000000000000000000000000000000000000000000000 /#
b101010001010111110001110110100101101000000000000000000000000000000000000000000000000000000000000000000000000000000000000000000000000000000000000000000000000000000000000000000000000000000000000000000 ;%
b1111110000000110000010001111111111101001 k-
b1110000000000101001000110110000000100001 5.
b11 l1
#10
b1101000011110001011011110010111101111111110000000110000010001111111111101001000000000000000000000000000000000000000000000000000000000000000000000000000000000000000000000000000000000000000000000000 #
b11100110111000000001110101010000010001111110000000000101001000110110000000100001000000000000000000000000000000000000000000000000000000000000000000000000000000000000000000000000000000000000000000000000 /#
b101010001010111110001110110100101101000001011000011100111110010000101011111100000000000000000000000000000000000000000000000000000000000000000000000000000000000000000000000000000000000000000000000000 ;%
b1000100000001111011000000010111101100 k-
b1111110100011010001101010101101000000110 5.
b100 l1
#11
b1101000011110001011011110010111101111111110000000110000010001111111111101001000100010000000111101100000001011110110000000000000000000000000000000000000000000000000000000000000000000000000000000000 #
b11100110111000000001110101010000010001111110000000000101001000110110000000100001111111010001101000110101010110100000011000000000000000000000000000000000000000000000000000000000000000000000000000000000 /#
b101010001010111110001110110100101101000001011000011100111110010000101011111100000110000001110100111010010011010011101000000000000000000000000000000000000000000000000000000000000000000000000000000000 ;%
b1111011111100111000100011111101011110100 k-
b1011100011100001011010011010000101100 5.
1|1
1%2
#12
b1101000011110001011011110010111101111111110000000110000010001111111111101001000100010000000111101100000001011110110011110111111001110001000111111010111101000000000000000000000000000000000000000000 #
b11100110111000000001110101010000010001111110000000000101001000110110000000100001111111010001101000110101010110100000011000010111000111000010110100110100001011000000000000000000000000000000000000000000 /#
b101010001010111110001110110100101101000001011000011100111110010000101011111100000110000001110100111010010011010011101000000010001110010100010101010011001010100000000000000000000000000000000000000000 ;%
0u1
1w1
1}1
#18
1*2
#22
1~1
#30
0~1
#34
1~1
#42
0~1
#46
1~1
#54
0~1
#58
1~1
#66
0~1
#67
b1 q1
1t1
1{1
0|1
0%2
#68
b0 #
b0 /#
b0 ;%
b11101 l1
b0 q1
0t1
0w1
0{1
0}1
0*2
#69
b0 k-
b0 5.
b10001 l1
1u1
#70
b1110000111010110111111101110000111100010 k-
b1100011000000110010000111100001001 5.
b10010 l1
#71
b11100001110101101111111011100001111000100000000000000000000000000000000000000000000000000000000000000000000000000000000000000000000000000000000000000000000000000000000000000000000000000000000000000000 #
b11000110000001100100001111000010010000000000000000000000000000000000000000000000000000000000000000000000000000000000000000000000000000000000000000000000000000000000000000000000000000000000000000 /#
b11111001111100110000001000000100111000000000000000000000000000000000000000000000000000000000000000000000000000000000000000000000000000000000000000000000000000000000000000000000000000000000000000000000 ;%
b1110001011110111111110111101100011111001 k-
b1111100100011101001010100001101000011000 5.
b10011 l1
#72
b11100001110101101111111011100001111000101110001011110111111110111101100011111001000000000000000000000000000000000000000000000000000000000000000000000000000000000000000000000000000000000000000000000000 #
b11000110000001100100001111000010011111100100011101001010100001101000011000000000000000000000000000000000000000000000000000000000000000000000000000000000000000000000000000000000000000000000000000 /#
b11111001111100110000001000000100111000001111111100000000111011101110101011111011000000000000000000000000000000000000000000000000000000000000000000000000000000000000000000000000000000000000000000000000 ;%
b1110010100011101000011001111101100000110 k-
b1110101000111000010100100100011100001101 5.
b10100 l1
#73
b11100001110101101111111011100001111000101110001011110111111110111101100011111001111001010001110100001100111110110000011000000000000000000000000000000000000000000000000000000000000000000000000000000000 #
b11000110000001100100001111000010011111100100011101001010100001101000011000111010100011100001010010010001110000110100000000000000000000000000000000000000000000000000000000000000000000000000000000 /#
b11111001111100110000001000000100111000001111111100000000111011101110101011111011111101011111000011101101000100010000010000000000000000000000000000000000000000000000000000000000000000000000000000000000 ;%
b0 k-
b0 5.
1|1
1%2
#74
0u1
1w1
1}1
#80
1*2
#84
1~1
#92
0~1
#96
1~1
#104
0~1
#108
1~1
#116
0~1
#120
1~1
#128
0~1
#129
b1 q1
1t1
1{1
0|1
0%2
#130
b0 #
b0 /#
b0 ;%
b11101 l1
b0 q1
0t1
0w1
0{1
0}1
0*2
#131
b10001 l1
1u1
#132
b1110000111010110111111101110000111100010 k-
b1100011000000110010000111100001001 5.
b10010 l1
#133
b11100001110101101111111011100001111000100000000000000000000000000000000000000000000000000000000000000000000000000000000000000000000000000000000000000000000000000000000000000000000000000000000000000000 #
b11000110000001100100001111000010010000000000000000000000000000000000000000000000000000000000000000000000000000000000000000000000000000000000000000000000000000000000000000000000000000000000000000 /#
b11111001111100110000001000000100111000000000000000000000000000000000000000000000000000000000000000000000000000000000000000000000000000000000000000000000000000000000000000000000000000000000000000000000 ;%
b1110001011110111111110111101100011111001 k-
b1111100100011101001010100001101000011000 5.
b10011 l1
#134
b11100001110101101111111011100001111000101110001011110111111110111101100011111001000000000000000000000000000000000000000000000000000000000000000000000000000000000000000000000000000000000000000000000000 #
b11000110000001100100001111000010011111100100011101001010100001101000011000000000000000000000000000000000000000000000000000000000000000000000000000000000000000000000000000000000000000000000000000 /#
b11111001111100110000001000000100111000001111111100000000111011101110101011111011000000000000000000000000000000000000000000000000000000000000000000000000000000000000000000000000000000000000000000000000 ;%
b1110010100011101000011001111101100000110 k-
b1110101000111000010100100100011100001101 5.
b10100 l1
#135
b11100001110101101111111011100001111000101110001011110111111110111101100011111001111001010001110100001100111110110000011000000000000000000000000000000000000000000000000000000000000000000000000000000000 #
b11000110000001100100001111000010011111100100011101001010100001101000011000111010100011100001010010010001110000110100000000000000000000000000000000000000000000000000000000000000000000000000000000 /#
b11111001111100110000001000000100111000001111111100000000111011101110101011111011111101011111000011101101000100010000010000000000000000000000000000000000000000000000000000000000000000000000000000000000 ;%
b0 k-
b0 5.
1|1
1%2
#136
0u1
1w1
1}1
#142
1*2
#146
1~1
#154
0~1
#158
1~1
#166
0~1
#170
1~1
#178
0~1
#182
1~1
#190
0~1
#191
b1 q1
1t1
1{1
0|1
0%2
#192
b0 #
b0 /#
b0 ;%
b11101 l1
b0 q1
0t1
0w1
0{1
0}1
0*2
#193
b10001 l1
1u1
#194
b1110000111010110111111101110000111100010 k-
b1100011000000110010000111100001001 5.
b10010 l1
#195
b11100001110101101111111011100001111000100000000000000000000000000000000000000000000000000000000000000000000000000000000000000000000000000000000000000000000000000000000000000000000000000000000000000000 #
b11000110000001100100001111000010010000000000000000000000000000000000000000000000000000000000000000000000000000000000000000000000000000000000000000000000000000000000000000000000000000000000000000 /#
b11111001111100110000001000000100111000000000000000000000000000000000000000000000000000000000000000000000000000000000000000000000000000000000000000000000000000000000000000000000000000000000000000000000 ;%
b1110001011110111111110111101100011111001 k-
b1111100100011101001010100001101000011000 5.
b10011 l1
#196
b11100001110101101111111011100001111000101110001011110111111110111101100011111001000000000000000000000000000000000000000000000000000000000000000000000000000000000000000000000000000000000000000000000000 #
b11000110000001100100001111000010011111100100011101001010100001101000011000000000000000000000000000000000000000000000000000000000000000000000000000000000000000000000000000000000000000000000000000 /#
b11111001111100110000001000000100111000001111111100000000111011101110101011111011000000000000000000000000000000000000000000000000000000000000000000000000000000000000000000000000000000000000000000000000 ;%
b1110010100011101000011001111101100000110 k-
b1110101000111000010100100100011100001101 5.
b10100 l1
#197
b11100001110101101111111011100001111000101110001011110111111110111101100011111001111001010001110100001100111110110000011000000000000000000000000000000000000000000000000000000000000000000000000000000000 #
b11000110000001100100001111000010011111100100011101001010100001101000011000111010100011100001010010010001110000110100000000000000000000000000000000000000000000000000000000000000000000000000000000 /#
b11111001111100110000001000000100111000001111111100000000111011101110101011111011111101011111000011101101000100010000010000000000000000000000000000000000000000000000000000000000000000000000000000000000 ;%
b0 k-
b0 5.
1|1
1%2
#198
0u1
1w1
1}1
#204
1*2
#208
1~1
#216
0~1
#220
1~1
#228
0~1
#232
1~1
#240
0~1
#244
1~1
#252
0~1
#253
b1 q1
1t1
1{1
0|1
0%2
#254
b0 #
b0 /#
b0 ;%
b1010 l1
b0 q1
0t1
0w1
0{1
0}1
0*2
#255
b11010000001100111110011011011011101011 k-
b1101110011010100111100011110111100001001 5.
b10001 l1
1u1
#256
b11010000001100111110011011011011101011 #
b1101110011010100111100011110111100001001 /#
b1110111100000111000001101111001100001101 ;%
b1110000111010110111111101110000111100010 k-
b1100011000000110010000111100001001 5.
b10010 l1
#257
b11100001110101101111111011100001111000100000000000000000000000000000000000000000000000000000000000000000000000000000000000000000000000000000000000000000000000000011010000001100111110011011011011101011 #
b11000110000001100100001111000010010000000000000000000000000000000000000000000000000000000000000000000000000000000000000000000000000000000000000000000000001101110011010100111100011110111100001001 /#
b11111001111100110000001000000100111000000000000000000000000000000000000000000000000000000000000000000000000000000000000000000000000000000000000000000000000000001110111100000111000001101111001100001101 ;%
b1110001011110111111110111101100011111001 k-
b1111100100011101001010100001101000011000 5.
b10011 l1
#258
b11100001110101101111111011100001111000101110001011110111111110111101100011111001000000000000000000000000000000000000000000000000000000000000000000000000000000000011010000001100111110011011011011101011 #
b11000110000001100100001111000010011111100100011101001010100001101000011000000000000000000000000000000000000000000000000000000000000000000000000000000000001101110011010100111100011110111100001001 /#
b11111001111100110000001000000100111000001111111100000000111011101110101011111011000000000000000000000000000000000000000000000000000000000000000000000000000000001110111100000111000001101111001100001101 ;%
b1110010100011101000011001111101100000110 k-
b1110101000111000010100100100011100001101 5.
b10100 l1
#259
b11100001110101101111111011100001111000101110001011110111111110111101100011111001111001010001110100001100111110110000011000000000000000000000000000000000000000000011010000001100111110011011011011101011 #
b11000110000001100100001111000010011111100100011101001010100001101000011000111010100011100001010010010001110000110100000000000000000000000000000000000000001101110011010100111100011110111100001001 /#
b11111001111100110000001000000100111000001111111100000000111011101110101011111011111101011111000011101101000100010000010000000000000000000000000000000000000000001110111100000111000001101111001100001101 ;%
b0 k-
b0 5.
1|1
1%2
#260
0u1
1w1
1}1
#266
1*2
#270
1~1
#278
0~1
#282
1~1
#290
0~1
#294
1~1
#302
0~1
#306
1~1
#314
0~1
#315
b1 q1
1t1
1{1
0|1
0%2
#316
b0 #
b0 /#
b0 ;%
b11101 l1
b0 q1
0t1
0w1
0{1
0}1
0*2
#317
b10001 l1
1u1
#318
b1110000111010110111111101110000111100010 k-
b1100011000000110010000111100001001 5.
b10010 l1
#319
b11100001110101101111111011100001111000100000000000000000000000000000000000000000000000000000000000000000000000000000000000000000000000000000000000000000000000000000000000000000000000000000000000000000 #
b11000110000001100100001111000010010000000000000000000000000000000000000000000000000000000000000000000000000000000000000000000000000000000000000000000000000000000000000000000000000000000000000000 /#
b11111001111100110000001000000100111000000000000000000000000000000000000000000000000000000000000000000000000000000000000000000000000000000000000000000000000000000000000000000000000000000000000000000000 ;%
b1110001011110111111110111101100011111001 k-
b1111100100011101001010100001101000011000 5.
b10011 l1
#320
b11100001110101101111111011100001111000101110001011110111111110111101100011111001000000000000000000000000000000000000000000000000000000000000000000000000000000000000000000000000000000000000000000000000 #
b11000110000001100100001111000010011111100100011101001010100001101000011000000000000000000000000000000000000000000000000000000000000000000000000000000000000000000000000000000000000000000000000000 /#
b11111001111100110000001000000100111000001111111100000000111011101110101011111011000000000000000000000000000000000000000000000000000000000000000000000000000000000000000000000000000000000000000000000000 ;%
b1110010100011101000011001111101100000110 k-
b1110101000111000010100100100011100001101 5.
b10100 l1
#321
b11100001110101101111111011100001111000101110001011110111111110111101100011111001111001010001110100001100111110110000011000000000000000000000000000000000000000000000000000000000000000000000000000000000 #
b11000110000001100100001111000010011111100100011101001010100001101000011000111010100011100001010010010001110000110100000000000000000000000000000000000000000000000000000000000000000000000000000000 /#
b11111001111100110000001000000100111000001111111100000000111011101110101011111011111101011111000011101101000100010000010000000000000000000000000000000000000000000000000000000000000000000000000000000000 ;%
b0 k-
b0 5.
1|1
1%2
#322
0u1
1w1
1}1
#328
1*2
#332
1~1
#340
0~1
#344
1~1
#352
0~1
#356
1~1
#364
0~1
#368
1~1
#376
0~1
#377
b1 q1
1t1
1{1
0|1
0%2
#378
b0 #
b0 /#
b0 ;%
b11101 l1
b0 q1
0t1
0w1
0{1
0}1
0*2
#379
b10001 l1
1u1
#380
b1110000111010110111111101110000111100010 k-
b1100011000000110010000111100001001 5.
b10010 l1
#381
b11100001110101101111111011100001111000100000000000000000000000000000000000000000000000000000000000000000000000000000000000000000000000000000000000000000000000000000000000000000000000000000000000000000 #
b11000110000001100100001111000010010000000000000000000000000000000000000000000000000000000000000000000000000000000000000000000000000000000000000000000000000000000000000000000000000000000000000000 /#
b11111001111100110000001000000100111000000000000000000000000000000000000000000000000000000000000000000000000000000000000000000000000000000000000000000000000000000000000000000000000000000000000000000000 ;%
b1110001011110111111110111101100011111001 k-
b1111100100011101001010100001101000011000 5.
b10011 l1
#382
b11100001110101101111111011100001111000101110001011110111111110111101100011111001000000000000000000000000000000000000000000000000000000000000000000000000000000000000000000000000000000000000000000000000 #
b11000110000001100100001111000010011111100100011101001010100001101000011000000000000000000000000000000000000000000000000000000000000000000000000000000000000000000000000000000000000000000000000000 /#
b11111001111100110000001000000100111000001111111100000000111011101110101011111011000000000000000000000000000000000000000000000000000000000000000000000000000000000000000000000000000000000000000000000000 ;%
b1110010100011101000011001111101100000110 k-
b1110101000111000010100100100011100001101 5.
b10100 l1
#383
b11100001110101101111111011100001111000101110001011110111111110111101100011111001111001010001110100001100111110110000011000000000000000000000000000000000000000000000000000000000000000000000000000000000 #
b11000110000001100100001111000010011111100100011101001010100001101000011000111010100011100001010010010001110000110100000000000000000000000000000000000000000000000000000000000000000000000000000000 /#
b11111001111100110000001000000100111000001111111100000000111011101110101011111011111101011111000011101101000100010000010000000000000000000000000000000000000000000000000000000000000000000000000000000000 ;%
b0 k-
b0 5.
1|1
1%2
#384
0u1
1w1
1}1
#390
1*2
#394
1~1
#402
0~1
#406
1~1
#414
0~1
#418
1~1
#426
0~1
#430
1~1
#438
0~1
#439
b1 q1
1t1
1{1
0|1
0%2
#440
b0 #
b0 /#
b0 ;%
b1110 l1
b0 q1
0t1
0w1
0{1
0}1
0*2
#441
b100000000001000110010000001100101000 k-
b1111100100011110000110010011000000010110 5.
b1001 l1
1u1
#442
b100000000001000110010000001100101000 #
b1111100100011110000110010011000000010110 /#
b1000100010000111110000100000000110 ;%
b1111011111110100000010001111101011111000 k-
b11100000010111110000000000000000101 5.
b1010 l1
#443
b11110111111101000000100011111010111110000000000000000000000000000000000000000000000000000000000000000000000000000000000000000000000000000000000000000000000000000000100000000001000110010000001100101000 #
b111000000101111100000000000000001010000000000000000000000000000000000000000000000000000000000000000000000000000000000000000000000000000000000000000000000001111100100011110000110010011000000010110 /#
b1100000010000000111100000010000000110000000000000000000000000000000000000000000000000000000000000000000000000000000000000000000000000000000000000000000000000000001000100010000111110000100000000110 ;%
b11010000001100111110011011011011101011 k-
b1101110011010100111100011110111100001001 5.
b1011 l1
#444
b11110111111101000000100011111010111110000011010000001100111110011011011011101011000000000000000000000000000000000000000000000000000000000000000000000000000000000000100000000001000110010000001100101000 #
b111000000101111100000000000000001011101110011010100111100011110111100001001000000000000000000000000000000000000000000000000000000000000000000000000000000001111100100011110000110010011000000010110 /#
b1100000010000000111100000010000000111110111100000111000001101111001100001101000000000000000000000000000000000000000000000000000000000000000000000000000000000000001000100010000111110000100000000110 ;%
b10110100111010110111011011011000111011 k-
b100011110011111110000000110111111011 5.
b1100 l1
#445
b11110111111101000000100011111010111110000011010000001100111110011011011011101011001011010011101011011101101101100011101100000000000000000000000000000000000000000000100000000001000110010000001100101000 #
b111000000101111100000000000000001011101110011010100111100011110111100001001000010001111001111111000000011011111101100000000000000000000000000000000000000001111100100011110000110010011000000010110 /#
b1100000010000000111100000010000000111110111100000111000001101111001100001101111011101101010011000101000001000011010100000000000000000000000000000000000000000000001000100010000111110000100000000110 ;%
b100101000100001110011001110101000111100 k-
b1010011110111111100011110111011011010 5.
1|1
1%2
#446
b11110111111101000000100011111010111110000011010000001100111110011011011011101011001011010011101011011101101101100011101101001010001000011100110011101010001111000000100000000001000110010000001100101000 #
b111000000101111100000000000000001011101110011010100111100011110111100001001000010001111001111111000000011011111101100010100111101111111000111101110110110101111100100011110000110010011000000010110 /#
b1100000010000000111100000010000000111110111100000111000001101111001100001101111011101101010011000101000001000011010111110011111001110001100100111001001011100000001000100010000111110000100000000110 ;%
0u1
1w1
1}1
#452
1*2
#456
1~1
#464
0~1
#468
1~1
#476
0~1
#480
1~1
#488
0~1
#492
1~1
#500
0~1
#501
b1 q1
1t1
1{1
0|1
0%2
#502
b0 #
b0 /#
b0 ;%
b10001 l1
b0 q1
0t1
0w1
0{1
0}1
0*2
#503
b1110000111010110111111101110000111100010 k-
b1100011000000110010000111100001001 5.
b1001 l1
1u1
#504
b1110000111010110111111101110000111100010 #
b1100011000000110010000111100001001 /#
b1111100111110011000000100000010011100000 ;%
b1111011111110100000010001111101011111000 k-
b11100000010111110000000000000000101 5.
b1010 l1
#505
b11110111111101000000100011111010111110000000000000000000000000000000000000000000000000000000000000000000000000000000000000000000000000000000000000000000000000001110000111010110111111101110000111100010 #
b111000000101111100000000000000001010000000000000000000000000000000000000000000000000000000000000000000000000000000000000000000000000000000000000000000000000000001100011000000110010000111100001001 /#
b1100000010000000111100000010000000110000000000000000000000000000000000000000000000000000000000000000000000000000000000000000000000000000000000000000000000001111100111110011000000100000010011100000 ;%
b11010000001100111110011011011011101011 k-
b1101110011010100111100011110111100001001 5.
b1011 l1
#506
b11110111111101000000100011111010111110000011010000001100111110011011011011101011000000000000000000000000000000000000000000000000000000000000000000000000000000001110000111010110111111101110000111100010 #
b111000000101111100000000000000001011101110011010100111100011110111100001001000000000000000000000000000000000000000000000000000000000000000000000000000000000000001100011000000110010000111100001001 /#
b1100000010000000111100000010000000111110111100000111000001101111001100001101000000000000000000000000000000000000000000000000000000000000000000000000000000001111100111110011000000100000010011100000 ;%
b10110100111010110111011011011000111011 k-
b100011110011111110000000110111111011 5.
b1100 l1
#507
b11110111111101000000100011111010111110000011010000001100111110011011011011101011001011010011101011011101101101100011101100000000000000000000000000000000000000001110000111010110111111101110000111100010 #
b111000000101111100000000000000001011101110011010100111100011110111100001001000010001111001111111000000011011111101100000000000000000000000000000000000000000000001100011000000110010000111100001001 /#
b1100000010000000111100000010000000111110111100000111000001101111001100001101111011101101010011000101000001000011010100000000000000000000000000000000000000001111100111110011000000100000010011100000 ;%
b100101000100001110011001110101000111100 k-
b1010011110111111100011110111011011010 5.
1|1
1%2
#508
b11110111111101000000100011111010111110000011010000001100111110011011011011101011001011010011101011011101101101100011101101001010001000011100110011101010001111001110000111010110111111101110000111100010 #
b111000000101111100000000000000001011101110011010100111100011110111100001001000010001111001111111000000011011111101100010100111101111111000111101110110110100000001100011000000110010000111100001001 /#
b1100000010000000111100000010000000111110111100000111000001101111001100001101111011101101010011000101000001000011010111110011111001110001100100111001001011101111100111110011000000100000010011100000 ;%
0u1
1w1
1}1
#512
1,2
#514
1*2
#518
1~1
#526
0~1
#530
1~1
#538
0~1
#542
1~1
#550
0~1
#554
1~1
#562
0~1
#563
b1 q1
1t1
1{1
0|1
0%2
#564
b0 #
b0 /#
b0 ;%
b11101 l1
b0 q1
0t1
0w1
0{1
0}1
0*2
#565
b0 k-
b0 5.
b10001 l1
1u1
#566
b1110000111010110111111101110000111100010 k-
b1100011000000110010000111100001001 5.
b10010 l1
#567
b11100001110101101111111011100001111000100000000000000000000000000000000000000000000000000000000000000000000000000000000000000000000000000000000000000000000000000000000000000000000000000000000000000000 #
b11000110000001100100001111000010010000000000000000000000000000000000000000000000000000000000000000000000000000000000000000000000000000000000000000000000000000000000000000000000000000000000000000 /#
b11111001111100110000001000000100111000000000000000000000000000000000000000000000000000000000000000000000000000000000000000000000000000000000000000000000000000000000000000000000000000000000000000000000 ;%
b1110001011110111111110111101100011111001 k-
b1111100100011101001010100001101000011000 5.
b10011 l1
#568
b11100001110101101111111011100001111000101110001011110111111110111101100011111001000000000000000000000000000000000000000000000000000000000000000000000000000000000000000000000000000000000000000000000000 #
b11000110000001100100001111000010011111100100011101001010100001101000011000000000000000000000000000000000000000000000000000000000000000000000000000000000000000000000000000000000000000000000000000 /#
b11111001111100110000001000000100111000001111111100000000111011101110101011111011000000000000000000000000000000000000000000000000000000000000000000000000000000000000000000000000000000000000000000000000 ;%
b1110010100011101000011001111101100000110 k-
b1110101000111000010100100100011100001101 5.
b10100 l1
#569
b11100001110101101111111011100001111000101110001011110111111110111101100011111001111001010001110100001100111110110000011000000000000000000000000000000000000000000000000000000000000000000000000000000000 #
b11000110000001100100001111000010011111100100011101001010100001101000011000111010100011100001010010010001110000110100000000000000000000000000000000000000000000000000000000000000000000000000000000 /#
b11111001111100110000001000000100111000001111111100000000111011101110101011111011111101011111000011101101000100010000010000000000000000000000000000000000000000000000000000000000000000000000000000000000 ;%
b0 k-
b0 5.
1|1
1%2
#570
0u1
1w1
1}1
#576
1*2
#580
1~1
#588
0~1
#592
1~1
#600
0~1
#604
1~1
#612
0~1
#616
1~1
#624
0~1
#625
b1000010000000000000000000000000000000000000000000000100 {)
b100000000000000000000010000000000000000000100000000 #-
1t1
1{1
0|1
0%2
#626
b0 #
b0 /#
b0 ;%
b0 {)
b0 #-
b11101 l1
0t1
0w1
0{1
0}1
0*2
#627
b10001 l1
1u1
#628
b1110000111010110111111101110000111100010 k-
b1100011000000110010000111100001001 5.
b10010 l1
#629
b11100001110101101111111011100001111000100000000000000000000000000000000000000000000000000000000000000000000000000000000000000000000000000000000000000000000000000000000000000000000000000000000000000000 #
b11000110000001100100001111000010010000000000000000000000000000000000000000000000000000000000000000000000000000000000000000000000000000000000000000000000000000000000000000000000000000000000000000 /#
b11111001111100110000001000000100111000000000000000000000000000000000000000000000000000000000000000000000000000000000000000000000000000000000000000000000000000000000000000000000000000000000000000000000 ;%
b1110001011110111111110111101100011111001 k-
b1111100100011101001010100001101000011000 5.
b10011 l1
#630
b11100001110101101111111011100001111000101110001011110111111110111101100011111001000000000000000000000000000000000000000000000000000000000000000000000000000000000000000000000000000000000000000000000000 #
b11000110000001100100001111000010011111100100011101001010100001101000011000000000000000000000000000000000000000000000000000000000000000000000000000000000000000000000000000000000000000000000000000 /#
b11111001111100110000001000000100111000001111111100000000111011101110101011111011000000000000000000000000000000000000000000000000000000000000000000000000000000000000000000000000000000000000000000000000 ;%
b1110010100011101000011001111101100000110 k-
b1110101000111000010100100100011100001101 5.
b10100 l1
